…
```
## `summarise()` has grouped output by 'SongID'. You can override using the `.groups` argument.
```

``` r
print(song_means)
```

```
## # A tibble: 40 × 5
## # Groups:   SongID [10]
##    SongID Aviary mean_pot std_pot pres_count
##    <chr>   <int>    <dbl>   <dbl>      <int>
##  1 2M          1    0.625   0.703         48
##  2 2M          2    0.167   0.376         66
##  3 2M          5    0.378   0.646         90
##  4 2M          6    0.327   0.552         98
##  5 BDY         1    0.830   0.524         47
##  6 BDY         2    0.591   0.554         66
##  7 BDY         5    0.489   0.604         90
##  8 BDY         6    0.520   0.692         98
##  9 BOD         1    0.477   0.698         44
## 10 BOD         2    0.242   0.466         66
## # ℹ 30 more rows
```

``` r
csd_data.set0[csd_data.set0$Aviary == 1,]
```

```
## # A tibble: 464 × 22
## # Groups:   BirdID [6]
##    Posture BirdID   Bird Block SongID  Song Aviary SongSet Duration Latency AvgPotency B1Potency AvgRank B1Rank
##      <dbl> <chr>   <int> <int> <chr>  <int>  <int>   <int>    <dbl>   <dbl>      <dbl>     <dbl>   <dbl>  <dbl>
##  1       1 CB-Whi…     3     0 BDY        0      1       0        5      NA      0.829       1         1    4  
##  2       0 CB-Whi…     3     0 BOD        1      1       0       NA      NA      0.265       1         9    4  
##  3       1 CB-Whi…     3     0 ND         2      1       0        4      NA      0.526       1         3    4  
##  4       0 CB-Whi…     3     0 LB         3      1       0       NA      NA      0.316       1         7    4  
##  5       0 CB-Whi…     3     0 2M         4      1       0       NA      NA      0.447       1         4    4  
##  6       0 CB-Whi…     3     0 DBR        5      1       0       NA      NA      0.147       0        10   12  
##  7       1 CB-Whi…     3     0 GRG        6      1       0        5      NA      0.429       1         5    4  
##  8       0 CB-Whi…     3     0 WG         7      1       0       NA      NA      0.540       1         2    4  
##  9       1 CB-Whi…     3     0 LNR        8      1       0        2      NA      0.389       0.5       6    8.5
## 10       0 CB-Whi…     3     0 DMG        9      1       0       NA      NA      0.270       0.5       8    8.5
## # ℹ 454 more rows
## # ℹ 8 more variables: BlockResponseRate <dbl>, LowResponse <chr>, WrongResponseRate <dbl>, Prefix <chr>,
## #   MaxVelocity <dbl>, PeakHeight <dbl>, BVPotency <dbl>, PostureSum <dbl>
```
…
``` r
csd_binary.ranks <- left_join(csd_binary.clean,df_summary,by=c('Aviary','Bird','Block'))

df_summary <- csd_binary.ranks %>%
  group_by(Aviary) %>%
  summarize(GroupResponsivity = mean(BlockResponsivity,na.rm=TRUE)) %>%
  mutate(GroupsRank = rank(desc(GroupResponsivity),ties.method='first'))

csd_binary.ranks <- left_join(csd_binary.ranks,df_summary,by=c('Aviary'))

csd_binary.ranks
```

```
## # A tibble: 5,175 × 10
## # Groups:   BirdID [45]
##    Posture  Song SongID BirdID  Bird Block Aviary BlockResponsivity GroupResponsivity GroupsRank
##      <dbl> <int> <chr>  <chr>  <int> <int>  <int>             <dbl>             <dbl>      <int>
##  1       1     0 BDY    P1         0     0      0               0.5             0.795          1
##  2       1     1 BOD    P1         0     0      0               0.5             0.795          1
##  3       1     3 LB     P1         0     0      0               0.5             0.795          1
##  4       0     9 DMG    P1         0     0      0               0.5             0.795          1
##  5       0    10 BDY-   P1         0     0      0               0.5             0.795          1
##  6       0    12 LB-    P1         0     0      0               0.5             0.795          1
##  7       1     1 BOD    P1         0     1      0               0.5             0.795          1
##  8       1     9 DMG    P1         0     1      0               0.5             0.795          1
##  9       0    10 BDY-   P1         0     1      0               0.5             0.795          1
## 10       0    12 LB-    P1         0     1      0               0.5             0.795          1
## # ℹ 5,165 more rows
```
…
```
## `summarise()` has grouped output by 'Aviary'. You can override using the `.groups` argument.
```

``` r
csd_binary.ranks <- left_join(csd_binary.ranks,df_summary,by=c("Aviary","Bird"))
  
csd_binary.ranks
```

```
## # A tibble: 5,175 × 12
## # Groups:   BirdID [45]
##    Posture  Song SongID BirdID  Bird Block Aviary BlockResponsivity GroupResponsivity GroupsRank
##      <dbl> <int> <chr>  <chr>  <int> <int>  <int>             <dbl>             <dbl>      <int>
##  1       1     0 BDY    P1         0     0      0               0.5             0.795          1
##  2       1     1 BOD    P1         0     0      0               0.5             0.795          1
##  3       1     3 LB     P1         0     0      0               0.5             0.795          1
##  4       0     9 DMG    P1         0     0      0               0.5             0.795          1
##  5       0    10 BDY-   P1         0     0      0               0.5             0.795          1
##  6       0    12 LB-    P1         0     0      0               0.5             0.795          1
##  7       1     1 BOD    P1         0     1      0               0.5             0.795          1
##  8       1     9 DMG    P1         0     1      0               0.5             0.795          1
##  9       0    10 BDY-   P1         0     1      0               0.5             0.795          1
## 10       0    12 LB-    P1         0     1      0               0.5             0.795          1
## # ℹ 5,165 more rows
## # ℹ 2 more variables: BirdResponsivity <dbl>, RankInGroup <int>
```
…
```
## `summarise()` has grouped output by 'Bird'. You can override using the `.groups` argument.
```

``` r
csd_binary.birdResponse
```

```
## # A tibble: 472 × 3
## # Groups:   Bird [53]
##     Bird Block Responsivity
##    <int> <int>        <dbl>
##  1     0     0          0.5
##  2     0     1          0.5
##  3     0     2          1  
##  4     0     3          1  
##  5     0     4          1  
##  6     0     5          1  
##  7     0     6          0.5
##  8     1     0          0.5
##  9     1     1          1  
## 10     1     2          1  
## # ℹ 462 more rows
```
…
